<?xml version="1.0" encoding="UTF-8" standalone="no"?>
<!DOCTYPE log SYSTEM "logger.dtd">
<log>
<record>
  <date>2022-01-01T15:46:48</date>
  <millis>1641041208942</millis>
  <sequence>2</sequence>
  <logger>COMMAND</logger>
  <level>INFO</level>
  <class>ru.t1.vlvov.tm.service.LoggerService</class>
  <method>command</method>
  <thread>1</thread>
  <message>login</message>
</record>
<record>
  <date>2022-01-01T15:46:57</date>
  <millis>1641041217974</millis>
  <sequence>3</sequence>
  <logger>COMMAND</logger>
  <level>INFO</level>
  <class>ru.t1.vlvov.tm.service.LoggerService</class>
  <method>command</method>
  <thread>1</thread>
  <message>project-list</message>
</record>
</log>
