<?xml version="1.0" encoding="UTF-8" standalone="no"?>
<!DOCTYPE log SYSTEM "logger.dtd">
<log>
<record>
  <date>2022-01-01T15:47:56</date>
  <millis>1641041276310</millis>
  <sequence>1</sequence>
  <logger>MESSAGE</logger>
  <level>INFO</level>
  <class>ru.t1.vlvov.tm.service.LoggerService</class>
  <method>info</method>
  <thread>1</thread>
  <message>**WELCOME TO TASK-MANAGER**</message>
</record>
<record>
  <date>2022-01-01T15:50:42</date>
  <millis>1641041442336</millis>
  <sequence>4</sequence>
  <logger>MESSAGE</logger>
  <level>INFO</level>
  <class>ru.t1.vlvov.tm.service.LoggerService</class>
  <method>info</method>
  <thread>13</thread>
  <message>**TASK-MANAGER IS SHUTTING DOWN**</message>
</record>
</log>
